557-54.52-338723968.585
557-54.52-338723968.585
566-44.52-338723968.612
570-40.52-338723968.613
579-37.52-338723968.616
584-37.52-338723968.624
588-38.52-338723968.63
593-41.52-338723968.63
595-43.52-338723968.63
596-46.52-338723968.648
597-49.52-338723968.649
597-52.52-338723968.668
596-56.52-338723968.668
590-68.52-338723968.704
586-71.52-338723968.72
582-75.52-338723968.726
578-78.52-338723968.726
569-82.52-338723968.75
564-84.52-338723968.758
560-84.52-338723968.764
557-85.52-338723968.772
554-84.52-338723968.778
551-84.52-338723968.778
549-83.52-338723968.794
547-82.52-338723968.802
545-82.52-338723968.802
544-81.52-338723968.802
544-80.52-338723968.818
543-79.52-338723968.818
543-79.52-338723968.836
544-78.52-338723968.837
544-78.52-338723968.848
545-77.52-338723968.848
547-77.52-338723968.863
548-77.52-338723968.863
550-77.52-338723968.879
552-77.52-338723968.884
556-79.52-338723968.908
558-82.52-338723968.914
559-85.52-338723968.922
561-88.52-338723968.93
562-92.52-338723968.932
564-96.52-338723968.932
566-100.52-338723968.974
569-111.52-338723968.982
571-119.52-338723968.998
573-125.52-338723968.006
575-131.52-338723968.006
576-137.52-338723968.007
577-140.52-338723968.02
580-143.52-338723968.021
581-144.52-338723968.038
583-143.52-338723968.038
698-94.52-338723968.414
697-93.52-338723968.414
696-92.52-338723968.414
696-91.52-338723968.414
693-88.52-338723968.424
692-87.52-338723968.424
687-82.52-338723968.454
685-80.52-338723968.454
680-78.52-338723968.464
677-76.52-338723968.484
675-75.52-338723968.484
669-75.52-338723968.504
665-75.52-338723968.504
657-81.52-338723968.534
655-84.52-338723968.534
652-97.52-338723968.564
652-100.52-338723968.564
656-109.52-338723968.594
659-111.52-338723968.604
662-112.52-338723968.604
665-112.52-338723968.614
669-111.52-338723968.624
672-110.52-338723968.634
675-107.52-338723968.634
679-104.52-338723968.634
682-100.52-338723968.654
684-96.52-338723968.664
686-91.52-338723968.664
688-87.52-338723968.674
690-82.52-338723968.684
691-78.52-338723968.694
691-74.52-338723968.694
692-71.52-338723968.704
692-68.52-338723968.714
692-66.52-338723968.724
692-64.52-338723968.724
692-63.52-338723968.744
692-62.52-338723968.754
692-62.52-338723968.754
691-66.52-338723968.784
690-68.52-338723968.784
689-80.52-338723968.814
688-84.52-338723968.814
686-100.52-338723968.844
685-104.52-338723968.844
685-112.52-338723968.874
684-113.52-338723968.884
684-115.52-338723968.894
684-115.52-338723968.894
685-113.52-338723968.924
685-111.52-338723968.924
689-102.52-338723968.954
691-99.52-338723968.954
700-92.52-338723968.984
703-90.52-338723968.994
706-88.52-338723968.994
709-87.52-338723968.004
712-87.52-338723968.014
715-87.52-338723968.024
718-88.52-338723968.024
721-90.52-338723968.034
724-92.52-338723968.044
726-94.52-338723968.054
728-98.52-338723968.054
729-102.52-338723968.064
730-106.52-338723968.074
730-110.52-338723968.084
730-115.52-338723968.084
729-119.52-338723968.084
727-123.52-338723968.104
725-127.52-338723968.114
723-130.52-338723968.114
719-133.52-338723968.124
712-137.52-338723968.144
708-138.52-338723968.144
698-135.52-338723968.174
696-133.52-338723968.174
773-119.52-338723968.204
772-118.52-338723968.204
771-113.52-338723968.234
770-110.52-338723968.234
772-99.52-338723968.254
773-95.52-338723968.264
776-92.52-338723968.274
783-85.52-338723968.284
786-83.52-338723968.284
793-80.52-338723968.314
797-79.52-338723968.314
811-81.52-338723968.344
815-83.52-338723968.344
824-92.52-338723968.374
825-95.52-338723968.374
826-105.52-338723968.404
825-107.52-338723968.414
824-110.52-338723968.414
821-112.52-338723968.424
819-113.52-338723968.434
817-114.52-338723968.444
814-115.52-338723968.444
812-114.52-338723968.454
811-113.52-338723968.464
809-112.52-338723968.474
808-109.52-338723968.474
807-106.52-338723968.484
807-103.52-338723968.494
808-99.52-338723968.504
809-95.52-338723968.504
810-91.52-338723968.514
812-87.52-338723968.524
815-84.52-338723968.534
818-81.52-338723968.534
821-78.52-338723968.544
827-73.52-338723968.564
829-70.52-338723968.564
836-64.52-338723968.594
837-63.52-338723968.594
840-59.52-338723968.624
841-58.52-338723968.624
841-56.52-338723968.654
841-56.52-338723968.674
841-55.52-338723968.674
841-55.52-338723968.674
841-55.52-338723968.704
842-56.52-338723968.704
843-64.52-338723968.734
843-69.52-338723968.734
845-86.52-338723968.764
845-93.52-338723968.764
847-113.52-338723968.794
847-119.52-338723968.804
847-124.52-338723968.804
846-129.52-338723968.814
846-133.52-338723968.824
846-137.52-338723968.834
845-140.52-338723968.834
844-142.52-338723968.844
843-142.52-338723968.864
842-141.52-338723968.864
608-51.52-338723968.041
609-51.52-338723968.042
610-51.52-338723968.061
611-52.52-338723968.061
616-54.52-338723968.103
619-56.52-338723968.103
622-58.52-338723968.103
625-60.52-338723968.104
627-63.52-338723968.117
630-66.52-338723968.118
632-69.52-338723968.131
634-72.52-338723968.139
636-75.52-338723968.139
637-79.52-338723968.139
639-82.52-338723968.155
640-85.52-338723968.155
640-88.52-338723968.169
641-91.52-338723968.169
641-94.52-338723968.191
641-97.52-338723968.195
641-99.52-338723968.199
640-102.52-338723968.199
639-104.52-338723968.221
637-106.52-338723968.228
635-108.52-338723968.237
633-110.52-338723968.244
630-110.52-338723968.245
627-111.52-338723968.251
623-111.52-338723968.261
621-110.52-338723968.262
619-109.52-338723968.277
617-107.52-338723968.279
616-101.52-338723968.305
616-98.52-338723968.311
617-94.52-338723968.311
620-90.52-338723968.311
623-87.52-338723968.328
626-83.52-338723968.328
629-80.52-338723968.349
632-76.52-338723968.357
635-73.52-338723968.358
638-71.52-338723968.358
640-68.52-338723968.379
643-66.52-338723968.388
645-64.52-338723968.391
647-63.52-338723968.401
648-62.52-338723968.401
649-61.52-338723968.411
650-60.52-338723968.431
651-60.52-338723968.431
651-59.52-338723968.471
651-59.52-338723968.471
651-58.52-338723968.481
650-58.52-338723968.481
650-57.52-338723968.501
650-57.52-338723968.501
650-57.52-338723968.541
650-58.52-338723968.541
652-65.52-338723968.571
653-69.52-338723968.571
656-82.52-338723968.601
657-87.52-338723968.611
658-91.52-338723968.611
659-96.52-338723968.621
660-101.52-338723968.621
661-105.52-338723968.621
661-109.52-338723968.641
661-112.52-338723968.641
660-114.52-338723968.661
660-116.52-338723968.671
659-117.52-338723968.681
659-118.52-338723968.681
738-44.52-338723968.821
736-44.52-338723968.821
733-45.52-338723968.851
732-45.52-338723968.851
731-46.52-338723968.891
731-46.52-338723968.891
732-48.52-338723968.901
732-50.52-338723968.901
733-52.52-338723968.911
736-56.52-338723968.931
737-59.52-338723968.931
737-70.52-338723968.961
736-72.52-338723968.961
733-78.52-338723968.991
732-80.52-338723968.991
729-80.52-338723968.021
727-79.52-338723968.031
726-79.52-338723968.031
725-77.52-338723968.031
724-74.52-338723968.051
723-72.52-338723968.061
722-68.52-338723968.061
721-65.52-338723968.061
720-61.52-338723968.081
719-59.52-338723968.091
718-56.52-338723968.091
717-55.52-338723968.091
715-53.52-338723968.111
714-53.52-338723968.121
712-53.52-338723968.121
710-54.52-338723968.121
707-56.52-338723968.141
704-58.52-338723968.151
701-62.52-338723968.151
699-66.52-338723968.151
696-75.52-338723968.181
695-80.52-338723968.181
696-95.52-338723968.211
699-100.52-338723968.211
707-109.52-338723968.241
711-111.52-338723968.241
721-111.52-338723968.271
724-110.52-338723968.271
730-108.52-338723968.291
733-106.52-338723968.291
741-102.52-338723968.321
775-38.52-338723968.341
775-38.52-338723968.341
775-39.52-338723968.351
775-39.52-338723968.351
776-43.52-338723968.381
776-45.52-338723968.381
776-56.52-338723968.411
776-60.52-338723968.411
776-78.52-338723968.441
776-84.52-338723968.441
774-98.52-338723968.461
774-104.52-338723968.461
772-120.52-338723968.491
827-95.52-338723968.471
827-95.52-338723968.471
826-96.52-338723968.491
824-96.52-338723968.491
822-96.52-338723968.511
820-95.52-338723968.511
815-93.52-338723968.521
813-91.52-338723968.521
809-86.52-338723968.551
809-84.52-338723968.551
808-80.52-338723968.581
808-79.52-338723968.581
813-78.52-338723968.611
816-78.52-338723968.621
819-78.52-338723968.621
822-78.52-338723968.631
825-78.52-338723968.641
828-78.52-338723968.651
831-79.52-338723968.651
834-79.52-338723968.651
837-79.52-338723968.671
839-79.52-338723968.681
842-79.52-338723968.681
844-79.52-338723968.681
846-79.52-338723968.701
848-78.52-338723968.711
850-78.52-338723968.711
852-77.52-338723968.711
856-76.52-338723968.733
859-75.52-338723968.735
863-71.52-338723968.755
865-69.52-338723968.755
870-59.52-338723968.785
872-55.52-338723968.785
876-46.52-338723968.815
877-44.52-338723968.815
879-41.52-338723968.835
879-40.52-338723968.835
880-42.52-338723968.865
880-45.52-338723968.865
881-59.52-338723968.895
881-66.52-338723968.895
879-88.52-338723968.925
877-95.52-338723968.925
874-114.52-338723968.955
873-119.52-338723968.955
869-130.52-338723968.995
868-131.52-338723968.995
