^C:\USERS\KOUSTAV\DESKTOP\PROJECT_UPLOADED_ON_28_MAY\PROJECT\DECEMBER10\DECEMBER10\TEST_THE_DLL\RELEASE\TESTTHEDLL.EXE.INTERMEDIATE.MANIFEST
C:\WINDOWS\MICROSOFT.NET\FRAMEWORK\V2.0.50727\MSCORWKS.DLL
C:\WINDOWS\MICROSOFT.NET\FRAMEWORK\V4.0.30319\CLR.DLL
C:\PROGRAM FILES\MICROSOFT SDKS\WINDOWS\V7.0A\BIN\MT.EXE.CONFIG
C:\USERS\KOUSTAV\DESKTOP\PROJECT_UPLOADED_ON_28_MAY\PROJECT\DECEMBER10\DECEMBER10\TEST_THE_DLL\RELEASE\TESTTHEDLL.EXE
