^C:\USERS\KOUSTAV\DESKTOP\PROJECT_UPLOADED_ON_28_MAY\PROJECT\DECEMBER10\DECEMBER10\RECOGNITIONENGINE V 2.0\SRC\CLASSIFIER\CLASSIFIER.CPP
/c /Zi /nologo /W3 /WX- /O2 /Oi /Oy- /GL /D WIN32 /D NDEBUG /D _WINDOWS /D _USRDLL /D DEVRECOGNITIONENGINESVMVS2008_EXPORTS /D _WINDLL /D _UNICODE /D UNICODE /Gm- /EHsc /MD /GS /Gy /fp:precise /Zc:wchar_t /Zc:forScope /Fo"Release\\" /Fd"Release\vc100.pdb" /Gd /TP /analyze- /errorReport:prompt C:\USERS\KOUSTAV\DESKTOP\PROJECT_UPLOADED_ON_28_MAY\PROJECT\DECEMBER10\DECEMBER10\RECOGNITIONENGINE V 2.0\SRC\CLASSIFIER\CLASSIFIER.CPP
^C:\USERS\KOUSTAV\DESKTOP\PROJECT_UPLOADED_ON_28_MAY\PROJECT\DECEMBER10\DECEMBER10\RECOGNITIONENGINE V 2.0\SRC\CLASSIFIER\SVM.CPP
/c /Zi /nologo /W3 /WX- /O2 /Oi /Oy- /GL /D WIN32 /D NDEBUG /D _WINDOWS /D _USRDLL /D DEVRECOGNITIONENGINESVMVS2008_EXPORTS /D _WINDLL /D _UNICODE /D UNICODE /Gm- /EHsc /MD /GS /Gy /fp:precise /Zc:wchar_t /Zc:forScope /Fo"Release\\" /Fd"Release\vc100.pdb" /Gd /TP /analyze- /errorReport:prompt C:\USERS\KOUSTAV\DESKTOP\PROJECT_UPLOADED_ON_28_MAY\PROJECT\DECEMBER10\DECEMBER10\RECOGNITIONENGINE V 2.0\SRC\CLASSIFIER\SVM.CPP
^C:\USERS\KOUSTAV\DESKTOP\PROJECT_UPLOADED_ON_28_MAY\PROJECT\DECEMBER10\DECEMBER10\RECOGNITIONENGINE V 2.0\SRC\FEATUREEXTRACTOR\FEATUREEXTRACTOR.CPP
/c /Zi /nologo /W3 /WX- /O2 /Oi /Oy- /GL /D WIN32 /D NDEBUG /D _WINDOWS /D _USRDLL /D DEVRECOGNITIONENGINESVMVS2008_EXPORTS /D _WINDLL /D _UNICODE /D UNICODE /Gm- /EHsc /MD /GS /Gy /fp:precise /Zc:wchar_t /Zc:forScope /Fo"Release\\" /Fd"Release\vc100.pdb" /Gd /TP /analyze- /errorReport:prompt C:\USERS\KOUSTAV\DESKTOP\PROJECT_UPLOADED_ON_28_MAY\PROJECT\DECEMBER10\DECEMBER10\RECOGNITIONENGINE V 2.0\SRC\FEATUREEXTRACTOR\FEATUREEXTRACTOR.CPP
^C:\USERS\KOUSTAV\DESKTOP\PROJECT_UPLOADED_ON_28_MAY\PROJECT\DECEMBER10\DECEMBER10\RECOGNITIONENGINE V 2.0\SRC\POSTPROCESS\POSTPROCESS.CPP
/c /Zi /nologo /W3 /WX- /O2 /Oi /Oy- /GL /D WIN32 /D NDEBUG /D _WINDOWS /D _USRDLL /D DEVRECOGNITIONENGINESVMVS2008_EXPORTS /D _WINDLL /D _UNICODE /D UNICODE /Gm- /EHsc /MD /GS /Gy /fp:precise /Zc:wchar_t /Zc:forScope /Fo"Release\\" /Fd"Release\vc100.pdb" /Gd /TP /analyze- /errorReport:prompt C:\USERS\KOUSTAV\DESKTOP\PROJECT_UPLOADED_ON_28_MAY\PROJECT\DECEMBER10\DECEMBER10\RECOGNITIONENGINE V 2.0\SRC\POSTPROCESS\POSTPROCESS.CPP
^C:\USERS\KOUSTAV\DESKTOP\PROJECT_UPLOADED_ON_28_MAY\PROJECT\DECEMBER10\DECEMBER10\RECOGNITIONENGINE V 2.0\SRC\POSTPROCESS\TSUTIL.CPP
/c /Zi /nologo /W3 /WX- /O2 /Oi /Oy- /GL /D WIN32 /D NDEBUG /D _WINDOWS /D _USRDLL /D DEVRECOGNITIONENGINESVMVS2008_EXPORTS /D _WINDLL /D _UNICODE /D UNICODE /Gm- /EHsc /MD /GS /Gy /fp:precise /Zc:wchar_t /Zc:forScope /Fo"Release\\" /Fd"Release\vc100.pdb" /Gd /TP /analyze- /errorReport:prompt C:\USERS\KOUSTAV\DESKTOP\PROJECT_UPLOADED_ON_28_MAY\PROJECT\DECEMBER10\DECEMBER10\RECOGNITIONENGINE V 2.0\SRC\POSTPROCESS\TSUTIL.CPP
^C:\USERS\KOUSTAV\DESKTOP\PROJECT_UPLOADED_ON_28_MAY\PROJECT\DECEMBER10\DECEMBER10\RECOGNITIONENGINE V 2.0\SRC\PREPROCESS\PREPROCESS.CPP
/c /Zi /nologo /W3 /WX- /O2 /Oi /Oy- /GL /D WIN32 /D NDEBUG /D _WINDOWS /D _USRDLL /D DEVRECOGNITIONENGINESVMVS2008_EXPORTS /D _WINDLL /D _UNICODE /D UNICODE /Gm- /EHsc /MD /GS /Gy /fp:precise /Zc:wchar_t /Zc:forScope /Fo"Release\\" /Fd"Release\vc100.pdb" /Gd /TP /analyze- /errorReport:prompt C:\USERS\KOUSTAV\DESKTOP\PROJECT_UPLOADED_ON_28_MAY\PROJECT\DECEMBER10\DECEMBER10\RECOGNITIONENGINE V 2.0\SRC\PREPROCESS\PREPROCESS.CPP
^C:\USERS\KOUSTAV\DESKTOP\PROJECT_UPLOADED_ON_28_MAY\PROJECT\DECEMBER10\DECEMBER10\RECOGNITIONENGINE V 2.0\SRC\RECOGNITIONENGINE.CPP
/c /Zi /nologo /W3 /WX- /O2 /Oi /Oy- /GL /D WIN32 /D NDEBUG /D _WINDOWS /D _USRDLL /D DEVRECOGNITIONENGINESVMVS2008_EXPORTS /D _WINDLL /D _UNICODE /D UNICODE /Gm- /EHsc /MD /GS /Gy /fp:precise /Zc:wchar_t /Zc:forScope /Fo"Release\\" /Fd"Release\vc100.pdb" /Gd /TP /analyze- /errorReport:prompt C:\USERS\KOUSTAV\DESKTOP\PROJECT_UPLOADED_ON_28_MAY\PROJECT\DECEMBER10\DECEMBER10\RECOGNITIONENGINE V 2.0\SRC\RECOGNITIONENGINE.CPP
^C:\USERS\KOUSTAV\DESKTOP\PROJECT_UPLOADED_ON_28_MAY\PROJECT\DECEMBER10\DECEMBER10\RECOGNITIONENGINE V 2.0\SRC\STROKE\STROKE.CPP
/c /Zi /nologo /W3 /WX- /O2 /Oi /Oy- /GL /D WIN32 /D NDEBUG /D _WINDOWS /D _USRDLL /D DEVRECOGNITIONENGINESVMVS2008_EXPORTS /D _WINDLL /D _UNICODE /D UNICODE /Gm- /EHsc /MD /GS /Gy /fp:precise /Zc:wchar_t /Zc:forScope /Fo"Release\\" /Fd"Release\vc100.pdb" /Gd /TP /analyze- /errorReport:prompt C:\USERS\KOUSTAV\DESKTOP\PROJECT_UPLOADED_ON_28_MAY\PROJECT\DECEMBER10\DECEMBER10\RECOGNITIONENGINE V 2.0\SRC\STROKE\STROKE.CPP
