^C:\USERS\KOUSTAV\DESKTOP\PROJECT_UPLOADED_ON_28_MAY\PROJECT\DECEMBER10\DECEMBER10\RECOGNITIONENGINE V 2.0\RELEASE\CLASSIFIER.OBJ|C:\USERS\KOUSTAV\DESKTOP\PROJECT_UPLOADED_ON_28_MAY\PROJECT\DECEMBER10\DECEMBER10\RECOGNITIONENGINE V 2.0\RELEASE\FEATUREEXTRACTOR.OBJ|C:\USERS\KOUSTAV\DESKTOP\PROJECT_UPLOADED_ON_28_MAY\PROJECT\DECEMBER10\DECEMBER10\RECOGNITIONENGINE V 2.0\RELEASE\POSTPROCESS.OBJ|C:\USERS\KOUSTAV\DESKTOP\PROJECT_UPLOADED_ON_28_MAY\PROJECT\DECEMBER10\DECEMBER10\RECOGNITIONENGINE V 2.0\RELEASE\PREPROCESS.OBJ|C:\USERS\KOUSTAV\DESKTOP\PROJECT_UPLOADED_ON_28_MAY\PROJECT\DECEMBER10\DECEMBER10\RECOGNITIONENGINE V 2.0\RELEASE\RECOGNITIONENGINE.OBJ|C:\USERS\KOUSTAV\DESKTOP\PROJECT_UPLOADED_ON_28_MAY\PROJECT\DECEMBER10\DECEMBER10\RECOGNITIONENGINE V 2.0\RELEASE\RECOGNITIONENGINE.RES|C:\USERS\KOUSTAV\DESKTOP\PROJECT_UPLOADED_ON_28_MAY\PROJECT\DECEMBER10\DECEMBER10\RECOGNITIONENGINE V 2.0\RELEASE\STROKE.OBJ|C:\USERS\KOUSTAV\DESKTOP\PROJECT_UPLOADED_ON_28_MAY\PROJECT\DECEMBER10\DECEMBER10\RECOGNITIONENGINE V 2.0\RELEASE\SVM.OBJ|C:\USERS\KOUSTAV\DESKTOP\PROJECT_UPLOADED_ON_28_MAY\PROJECT\DECEMBER10\DECEMBER10\RECOGNITIONENGINE V 2.0\RELEASE\TSUTIL.OBJ
C:\PROGRAM FILES\MICROSOFT SDKS\WINDOWS\V7.0A\LIB\KERNEL32.LIB
C:\PROGRAM FILES\MICROSOFT SDKS\WINDOWS\V7.0A\LIB\USER32.LIB
C:\PROGRAM FILES\MICROSOFT SDKS\WINDOWS\V7.0A\LIB\GDI32.LIB
C:\PROGRAM FILES\MICROSOFT SDKS\WINDOWS\V7.0A\LIB\WINSPOOL.LIB
C:\PROGRAM FILES\MICROSOFT SDKS\WINDOWS\V7.0A\LIB\COMDLG32.LIB
C:\PROGRAM FILES\MICROSOFT SDKS\WINDOWS\V7.0A\LIB\ADVAPI32.LIB
C:\PROGRAM FILES\MICROSOFT SDKS\WINDOWS\V7.0A\LIB\SHELL32.LIB
C:\PROGRAM FILES\MICROSOFT SDKS\WINDOWS\V7.0A\LIB\OLE32.LIB
C:\PROGRAM FILES\MICROSOFT SDKS\WINDOWS\V7.0A\LIB\OLEAUT32.LIB
C:\PROGRAM FILES\MICROSOFT SDKS\WINDOWS\V7.0A\LIB\UUID.LIB
C:\PROGRAM FILES\MICROSOFT SDKS\WINDOWS\V7.0A\LIB\ODBC32.LIB
C:\PROGRAM FILES\MICROSOFT SDKS\WINDOWS\V7.0A\LIB\ODBCCP32.LIB
C:\USERS\KOUSTAV\DESKTOP\PROJECT_UPLOADED_ON_28_MAY\PROJECT\DECEMBER10\DECEMBER10\RECOGNITIONENGINE V 2.0\RELEASE\RECOGNITIONENGINE.RES
C:\USERS\KOUSTAV\DESKTOP\PROJECT_UPLOADED_ON_28_MAY\PROJECT\DECEMBER10\DECEMBER10\RECOGNITIONENGINE V 2.0\RELEASE\CLASSIFIER.OBJ
C:\USERS\KOUSTAV\DESKTOP\PROJECT_UPLOADED_ON_28_MAY\PROJECT\DECEMBER10\DECEMBER10\RECOGNITIONENGINE V 2.0\RELEASE\SVM.OBJ
C:\USERS\KOUSTAV\DESKTOP\PROJECT_UPLOADED_ON_28_MAY\PROJECT\DECEMBER10\DECEMBER10\RECOGNITIONENGINE V 2.0\RELEASE\FEATUREEXTRACTOR.OBJ
C:\USERS\KOUSTAV\DESKTOP\PROJECT_UPLOADED_ON_28_MAY\PROJECT\DECEMBER10\DECEMBER10\RECOGNITIONENGINE V 2.0\RELEASE\POSTPROCESS.OBJ
C:\USERS\KOUSTAV\DESKTOP\PROJECT_UPLOADED_ON_28_MAY\PROJECT\DECEMBER10\DECEMBER10\RECOGNITIONENGINE V 2.0\RELEASE\TSUTIL.OBJ
C:\USERS\KOUSTAV\DESKTOP\PROJECT_UPLOADED_ON_28_MAY\PROJECT\DECEMBER10\DECEMBER10\RECOGNITIONENGINE V 2.0\RELEASE\PREPROCESS.OBJ
C:\USERS\KOUSTAV\DESKTOP\PROJECT_UPLOADED_ON_28_MAY\PROJECT\DECEMBER10\DECEMBER10\RECOGNITIONENGINE V 2.0\RELEASE\RECOGNITIONENGINE.OBJ
C:\USERS\KOUSTAV\DESKTOP\PROJECT_UPLOADED_ON_28_MAY\PROJECT\DECEMBER10\DECEMBER10\RECOGNITIONENGINE V 2.0\RELEASE\STROKE.OBJ
C:\WINDOWS\GLOBALIZATION\SORTING\SORTDEFAULT.NLS
C:\PROGRAM FILES\MICROSOFT VISUAL STUDIO 10.0\VC\BIN\C2.DLL
C:\PROGRAM FILES\MICROSOFT VISUAL STUDIO 10.0\VC\LIB\MSVCPRT.LIB
C:\PROGRAM FILES\MICROSOFT VISUAL STUDIO 10.0\VC\LIB\MSVCRT.LIB
C:\PROGRAM FILES\MICROSOFT VISUAL STUDIO 10.0\VC\LIB\OLDNAMES.LIB
C:\WINDOWS\SYSTEM32\TZRES.DLL
C:\PROGRAM FILES\MICROSOFT VISUAL STUDIO 10.0\VC\BIN\1033\LINKUI.DLL
C:\USERS\KOUSTAV\DESKTOP\PROJECT_UPLOADED_ON_28_MAY\PROJECT\DECEMBER10\DECEMBER10\RECOGNITIONENGINE V 2.0\BIN\RELEASE\RECOGNITIONENGINE.EXP
C:\PROGRAM FILES\MICROSOFT VISUAL STUDIO 10.0\VC\BIN\1033\CLUI.DLL
C:\PROGRAM FILES\MICROSOFT VISUAL STUDIO 10.0\VC\BIN\CVTRES.EXE
C:\WINDOWS\SYSTEM32\RSAENH.DLL
