144
1  5  1  0.993429  87  0.002347  90  0.000939  69  0.000469  75  0.000469
2  5  2  0.948416  85  0.025339  75  0.005430  1  0.003620  87  0.003620
3  5  3  0.943322  4  0.037134  53  0.016287  67  0.001303  10  0.000651
4  5  4  0.978089  53  0.010417  3  0.007902  67  0.001796  124  0.000718
5  5  5  0.953162  54  0.028103  118  0.004684  139  0.004684  30  0.002342
6  1  6  1.000000  
7  5  7  0.978390  8  0.014903  35  0.002235  93  0.002235  18  0.000745
8  5  8  0.956752  7  0.035305  95  0.001765  2  0.000883  9  0.000883
9  5  9  0.987552  37  0.005335  43  0.002964  4  0.001186  10  0.001186
10  5  10  0.980093  39  0.007299  134  0.003318  12  0.002654  15  0.001327
11  5  11  0.865969  31  0.116094  118  0.006976  12  0.001993  20  0.001993
12  5  12  0.993801  144  0.001907  119  0.001431  11  0.000954  117  0.000954
13  5  13  0.992741  14  0.002792  12  0.001675  138  0.001117  55  0.000558
14  5  14  0.994318  55  0.002525  124  0.001894  13  0.000631  118  0.000631
15  5  15  0.992958  134  0.002515  17  0.002012  61  0.001006  11  0.000503
16  5  16  0.972414  15  0.016552  11  0.002759  104  0.002759  20  0.001379
17  5  17  0.982597  61  0.011379  47  0.002008  30  0.001339  64  0.001339
18  5  18  0.991881  55  0.004060  9  0.002030  14  0.000677  64  0.000677
19  5  19  0.996274  4  0.000745  27  0.000745  111  0.000745  118  0.000745
20  5  20  0.995643  74  0.002614  63  0.000871  4  0.000436  45  0.000436
21  4  21  0.979409  64  0.011638  48  0.008057  42  0.000895
22  2  22  0.999184  49  0.000816
23  5  23  0.993446  38  0.002809  32  0.001873  48  0.000936  64  0.000936
24  5  24  0.974928  95  0.008679  39  0.004822  9  0.002893  10  0.002893
25  5  25  0.988696  40  0.005217  66  0.002609  36  0.000870  45  0.000870
26  4  26  0.995846  49  0.002077  52  0.001038  107  0.001038
27  5  27  0.991108  3  0.002425  78  0.001617  1  0.000808  4  0.000808
28  5  28  0.889267  90  0.071550  83  0.020443  98  0.005111  1  0.003407
29  5  29  0.910781  34  0.022305  93  0.017658  80  0.012082  82  0.006506
30  5  30  0.996828  61  0.001359  141  0.000906  15  0.000453  134  0.000453
31  4  31  0.764617  11  0.233106  65  0.001519  36  0.000759
32  5  32  0.926471  51  0.029412  33  0.017974  92  0.016340  23  0.004902
33  5  33  0.978979  32  0.009009  94  0.004204  41  0.003003  51  0.001201
34  5  34  0.963778  29  0.020597  97  0.007102  82  0.005682  75  0.002131
35  5  35  0.977792  39  0.006532  10  0.002613  7  0.001960  24  0.001960
36  3  36  0.982639  41  0.015625  11  0.001736
37  5  37  0.942881  43  0.045530  9  0.004967  91  0.003311  55  0.002483
38  3  38  0.998481  11  0.000759  48  0.000759
39  5  39  0.976781  10  0.005604  72  0.004804  35  0.004003  34  0.002402
40  5  40  0.984838  48  0.004135  25  0.003446  65  0.003446  92  0.001378
41  5  41  0.980431  36  0.010763  68  0.002935  11  0.001957  33  0.000978
42  5  42  0.983884  98  0.006446  51  0.002417  64  0.001612  79  0.001612
43  5  43  0.927940  37  0.062542  91  0.004759  9  0.002039  3  0.000680
44  5  44  0.994532  15  0.001367  21  0.001367  25  0.000684  46  0.000684
45  5  45  0.991234  64  0.004720  2  0.000674  20  0.000674  25  0.000674
46  4  46  0.997887  49  0.000704  57  0.000704  104  0.000704
47  5  47  0.995246  11  0.001585  23  0.000792  40  0.000792  48  0.000792
48  5  48  0.983386  21  0.009494  40  0.002373  33  0.000791  38  0.000791
49  1  49  1.000000
50  1  50  1.000000
51  5  51  0.967697  98  0.014045  32  0.007725  42  0.004213  90  0.002107
52  5  52  0.992579  39  0.001855  7  0.000928  22  0.000928  24  0.000928
53  5  53  0.926020  4  0.058673  3  0.013605  67  0.000850  124  0.000850
54  4  54  0.993595  5  0.004804  10  0.000801  81  0.000801
55  5  55  0.976875  18  0.008125  13  0.003125  22  0.002500  10  0.001875
56  5  56  0.989179  60  0.004456  58  0.003819  57  0.001273  51  0.000637
57  5  57  0.995106  48  0.001631  56  0.000816  59  0.000816  60  0.000816
58  3  58  0.992175  56  0.004695  60  0.003130
59  5  59  0.995830  56  0.001668  35  0.000834  60  0.000834  62  0.000834
60  5  60  0.973412  56  0.011817  58  0.004431  42  0.001477  51  0.001477
61  5  61  0.966667  17  0.014530  62  0.010256  30  0.003419  65  0.001709
62  5  62  0.965041  61  0.029439  68  0.001840  12  0.000920  40  0.000920
63  5  63  0.983539  111  0.010700  65  0.002469  20  0.000823  116  0.000823
64  5  64  0.974093  21  0.012953  48  0.004318  19  0.001727  9  0.000864
65  5  65  0.979027  142  0.005034  40  0.003356  61  0.003356  62  0.003356
66  5  66  0.951574  61  0.009685  17  0.007264  25  0.007264  31  0.007264
67  5  67  0.934884  4  0.023256  143  0.009302  20  0.004651  40  0.004651
68  3  68  0.993421  41  0.005482  30  0.001096
69  5  69  0.990018  70  0.006352  78  0.001815  20  0.000907  45  0.000907
70  5  70  0.934256  69  0.038062  1  0.006920  29  0.006920  2  0.003460
71  5  71  0.991588  50  0.002103  69  0.002103  7  0.001052  41  0.001052
72  5  72  0.991851  97  0.002328  106  0.002328  35  0.001164  39  0.001164
73  5  73  0.800000  105  0.066667  76  0.033333  94  0.033333  99  0.033333
74  5  74  0.969868  20  0.022599  3  0.001883  27  0.001883  29  0.001883
75  5  75  0.964043  82  0.012634  34  0.005831  2  0.004859  1  0.003887
76  5  76  0.958580  103  0.029586  5  0.001972  23  0.001972  44  0.001972
77  5  77  0.969095  1  0.006623  75  0.004415  78  0.004415  2  0.002208
78  5  78  0.990526  80  0.003158  1  0.002105  2  0.002105  70  0.002105
79  5  79  0.956747  42  0.006920  98  0.006920  84  0.005190  90  0.005190
80  5  80  0.986399  29  0.006477  85  0.002591  2  0.001943  1  0.001295
81  5  81  0.988314  30  0.007513  27  0.001669  111  0.000835  134  0.000835
82  5  82  0.928728  34  0.018640  75  0.013158  24  0.009868  29  0.005482
83  5  83  0.977728  28  0.012249  79  0.003341  1  0.002227  42  0.001114
84  5  84  0.915014  89  0.022663  79  0.016997  83  0.011331  99  0.011331
85  5  85  0.970968  2  0.019355  80  0.004839  29  0.001613  87  0.001613
86  5  86  0.966620  94  0.025035  33  0.004172  51  0.002782  98  0.001391
87  5  87  0.964315  97  0.017427  88  0.006639  1  0.005809  29  0.001660
88  5  88  0.915601  87  0.028133  82  0.025575  75  0.010230  8  0.005115
89  5  89  0.905844  84  0.042208  90  0.025974  1  0.009740  102  0.006494
90  5  90  0.966637  28  0.022543  51  0.003607  83  0.001803  89  0.001803
91  5  91  0.949541  43  0.018349  37  0.009174  134  0.006881  10  0.004587
92  5  92  0.982639  32  0.008681  28  0.001736  40  0.001736  1  0.000868
93  5  93  0.962500  29  0.015000  97  0.010000  35  0.002500  87  0.002500
94  5  94  0.869565  86  0.094629  33  0.020460  41  0.010230  51  0.005115
95  5  95  0.944024  24  0.024206  39  0.013616  10  0.009077  8  0.001513
96  2  28  0.500000  79  0.500000
97  5  97  0.935177  93  0.014693  34  0.010372  87  0.010372  29  0.005186
98  5  98  0.783422  51  0.160428  42  0.024064  48  0.008021  32  0.005348
99  5  99  0.964064  102  0.017348  107  0.004957  42  0.003717  98  0.002478
100  1  100  1.000000
101  5  101  0.804348  79  0.043478  104  0.043478  46  0.021739  82  0.021739
102  5  102  0.973615  107  0.006596  84  0.005277  99  0.005277  1  0.002639
103  5  103  0.942721  76  0.042959  45  0.004773  5  0.002387  21  0.002387
104  5  104  0.959184  76  0.023810  5  0.003401  15  0.003401  23  0.003401
105  5  105  0.992694  44  0.001826  98  0.001826  23  0.000913  48  0.000913
106  5  106  0.809524  72  0.079365  93  0.047619  97  0.031746  8  0.015873
107  5  107  0.964912  102  0.014035  99  0.010526  84  0.007018  105  0.003509
108  1  108  1.000000
109  4  109  0.866667  22  0.066667  37  0.050000  54  0.016667
110  5  110  0.989637  77  0.002591  1  0.001295  8  0.001295  27  0.001295
111  5  63  0.313725  111  0.220588  144  0.186275  119  0.073529  113  0.044118
112  1  112  1.000000
113  4  113  0.950000  144  0.028571  111  0.014286  119  0.007143
114  5  114  0.916667  142  0.027778  144  0.027778  63  0.013889  111  0.013889
115  1  115  1.000000
116  3  63  0.898551  111  0.086957  116  0.014493
117  5  12  0.633803  119  0.225352  117  0.098592  61  0.014085  62  0.014085
118  5  118  0.672527  142  0.041758  11  0.026374  55  0.017582  144  0.015385
119  5  119  0.488550  12  0.190840  113  0.076336  117  0.076336  144  0.053435
120  1  120  1.000000
121  1  121  1.000000
122  1  122  1.000000
123  1  123  1.000000
124  5  124  0.623188  14  0.115942  13  0.072464  4  0.043478  3  0.028986
125  1  125  1.000000
126  1  126  1.000000
127  1  127  1.000000
128  1  128  1.000000
129  1  129  1.000000
130  1  130  1.000000
131  3  131  0.800000  31  0.10000  11  0.10000
132  3  132  0.800000  144  0.100000 111 0.100000
133  5  133  0.816901  67  0.056338  17  0.042254  20  0.042254  4  0.028169
134  5  134  0.802817  15  0.056338  10  0.028169  30  0.028169  12  0.014085
135  5  135  0.815789  118  0.052632  10  0.026316  22  0.026316  30  0.026316
136  3  136  0.765217  30  0.191304  134  0.043478
137  4  137  0.892308  111  0.076923  11  0.015385  19  0.015385
138  4  138  0.898551  13  0.057971  124  0.028986  119  0.014493
139  5  139  0.818182  118  0.121212  15  0.030303  11  0.015152  103  0.015152
140  5  140  0.878788  14  0.045455  135  0.045455  9  0.015152  20  0.015152
141  5  141  0.839024  30  0.014634  61  0.097561  55  0.024390  133  0.024390
142  5  142  0.886957  65  0.028986  55  0.014493  62  0.011594  67  0.008696
143  4  143  0.777778  63  0.111111  67  0.074074  20  0.037037
144  5  144  0.773333  111  0.062222  113  0.053333  119  0.026667  114  0.017778
