^C:\Users\Koustav\Desktop\Project_Uploaded_on_28_May\Project\December10\December10\RecognitionEngine v 2.0\RecognitionEngine.vcxproj
C:\Users\Koustav\Desktop\Project_Uploaded_on_28_May\Project\December10\December10\RecognitionEngine v 2.0\bin\Debug\Engines\IIITH\MAL\RecognitionEngine.lib
C:\Users\Koustav\Desktop\Project_Uploaded_on_28_May\Project\December10\December10\RecognitionEngine v 2.0\bin\Debug\Engines\IIITH\MAL\RecognitionEngine.lib
C:\Users\Koustav\Desktop\Project_Uploaded_on_28_May\Project\December10\December10\RecognitionEngine v 2.0\bin\Debug\Engines\IIITH\MAL\RecognitionEngine.exp
C:\Users\Koustav\Desktop\Project_Uploaded_on_28_May\Project\December10\December10\RecognitionEngine v 2.0\bin\Debug\Engines\IIITH\MAL\RecognitionEngine.exp
^C:\Users\Koustav\Desktop\Project_Uploaded_on_28_May\Project\December10\December10\RecognitionEngine v 2.0\RecognitionEngine.vcxproj
C:\Users\Koustav\Desktop\Project_Uploaded_on_28_May\Project\December10\December10\RecognitionEngine v 2.0\bin\Debug\Engines\IIITH\MAL\RecognitionEngine.lib
C:\Users\Koustav\Desktop\Project_Uploaded_on_28_May\Project\December10\December10\RecognitionEngine v 2.0\bin\Debug\Engines\IIITH\MAL\RecognitionEngine.lib
C:\Users\Koustav\Desktop\Project_Uploaded_on_28_May\Project\December10\December10\RecognitionEngine v 2.0\bin\Debug\Engines\IIITH\MAL\RecognitionEngine.exp
C:\Users\Koustav\Desktop\Project_Uploaded_on_28_May\Project\December10\December10\RecognitionEngine v 2.0\bin\Debug\Engines\IIITH\MAL\RecognitionEngine.exp
